(2.7):[0->20,4:{{0,1,4,10},{9,10,11,13},{10,11,13,16},{15,16,17,18},{16,17,18,19},{2,3,6,12},{2,6,8,12},{11,12,14,17},{11,14,15,17},{8,11,12,14},{9,11,13,15},{11,13,15,16},{1,4,7,10},{1,2,5,11},{5,8,9,11},{5,7,9,11},{2,5,8,11},{2,8,11,12},{11,15,16,17},{1,7,10,11},{1,5,7,11},{8,11,14,15},{8,9,11,15},{7,9,10,11}}] [1,6,6,1,2,5,2,6,8,6,7,21,6,4,4,8,6,6,2,1]
(23.8):[0->20,4:{{0,1,4,10},{8,9,11,12},{10,11,13,16},{14,15,16,17},{15,16,17,18},{16,17,18,19},{2,3,6,12},{2,6,8,12},{11,12,14,17},{9,11,14,15},{11,13,15,16},{7,10,11,13},{1,4,7,10},{1,2,5,11},{5,8,9,11},{2,5,8,11},{2,8,11,12},{1,7,10,11},{11,14,16,17},{11,14,15,16},{7,11,13,15},{7,9,11,15},{9,11,12,14},{1,7,9,11},{1,5,9,11}}] [1,7,6,1,2,4,2,7,6,7,6,20,7,4,6,7,7,5,2,1]
(32.70):[0->20,4:{{0,1,4,10},{10,11,13,16},{15,16,17,18},{16,17,18,19},{2,3,6,12},{11,12,14,17},{8,9,11,14},{9,11,14,15},{7,10,11,13},{7,9,11,13},{1,4,7,10},{1,2,5,11},{5,8,9,11},{5,7,9,11},{2,5,8,11},{2,11,12,14},{2,8,11,14},{9,11,15,16},{9,11,13,16},{5,7,10,11},{1,5,10,11},{1,5,7,10},{2,6,12,14},{2,6,8,14},{11,14,15,17},{11,15,16,17}}] [1,5,7,1,2,7,3,6,5,7,7,19,4,4,8,6,7,6,2,1]
(26.592):[0->20,4:{{0,1,4,10},{15,16,17,18},{16,17,18,19},{2,3,6,12},{2,6,8,12},{11,12,14,17},{1,2,5,11},{2,5,8,11},{11,15,16,17},{11,14,15,17},{8,11,14,15},{8,11,12,14},{2,8,11,12},{1,10,13,16},{5,7,9,13},{1,5,7,13},{1,4,10,13},{1,4,7,13},{5,8,9,15},{5,8,11,15},{1,5,11,16},{1,5,13,16},{5,11,15,16},{5,9,13,16},{5,9,15,16}}] [1,8,6,1,3,11,2,3,8,4,3,13,6,7,4,9,10,6,2,1]
(13.2847):[0->20,4:{{0,1,4,10},{7,8,9,10},{8,9,10,11},{3,6,11,12},{9,10,11,13},{10,11,13,16},{16,17,18,19},{11,12,14,17},{11,14,15,17},{9,11,13,15},{11,13,15,16},{1,4,7,10},{2,5,8,11},{11,16,17,18},{11,15,17,18},{11,15,16,18},{2,6,8,11},{1,5,7,10},{9,11,14,15},{8,9,11,14},{6,11,12,14},{2,3,6,11},{6,8,11,14},{2,5,10,11},{1,2,5,10},{5,8,10,11},{5,7,8,10}}] [1,4,5,2,2,6,5,4,8,6,11,20,3,4,6,6,5,5,4,1]
(12.19724):[0->20,4:{{10,11,13,16},{16,17,18,19},{7,10,11,13},{7,9,11,13},{1,2,5,11},{5,8,9,11},{5,7,9,11},{2,5,8,11},{11,15,16,18},{2,6,8,11},{9,11,15,16},{9,11,13,16},{4,7,10,11},{0,1,5,11},{0,4,10,11},{4,5,7,11},{6,8,11,14},{2,3,6,11},{11,14,15,18},{8,11,14,15},{8,9,11,15},{12,16,17,18},{0,4,5,11},{3,6,11,14},{3,11,14,18},{3,12,16,18},{3,11,16,18}}] [3,2,4,5,4,7,4,5,6,6,4,24,2,4,5,5,8,2,7,1]
(31.252749):[0->20,4:{{0,1,4,10},{10,11,13,16},{2,3,6,12},{2,6,8,12},{2,8,12,14},{1,10,11,13},{5,13,15,18},{2,12,14,17},{5,7,9,13},{1,4,10,13},{11,16,18,19},{4,5,7,13},{11,13,16,18},{1,4,5,13},{5,9,13,15},{1,2,11,13},{1,2,5,13},{2,11,18,19},{2,5,9,15},{2,14,15,17},{2,8,14,15},{2,8,9,15},{2,11,13,18},{2,17,18,19},{2,5,13,18},{2,15,17,18},{2,5,15,18}}] [1,6,16,1,4,9,2,2,4,4,4,7,4,13,4,8,3,4,9,3]
(test):[{{0,8,11,13}}]
